training_codelistgenerator
…
candidate_codes <- getCandidateCodes(
  cdm = cdm,
  keywords = "Musculoskeletal disorder",
  domains = NULL, 
  standardConcept = "Standard",
  includeDescendants = TRUE,
  searchInSynonyms = TRUE,
  searchNonStandard = FALSE,
  includeAncestor = FALSE
)

candidate_codes

# A tibble: 12,859 × 6
   concept_id found_from   concept_name domain_id vocabulary_id standard_concept
        <int> <chr>        <chr>        <chr>     <chr>         <chr>           
 1      30234 From descen… Neck sprain  Condition SNOMED        S               
 2      72398 From descen… Arthropathy… Condition SNOMED        S               
 3      72399 From descen… Arthropathy… Condition SNOMED        S               
 4      72400 From descen… Arthropathy… Condition SNOMED        S               
 5      72401 From descen… Kashin-Bek … Condition SNOMED        S               
 6      72403 From descen… Hemarthrosi… Condition SNOMED        S               
 7      72405 From descen… Degenerativ… Condition SNOMED        S               
 8      72406 From descen… Old disrupt… Condition SNOMED        S               
 9      72407 From descen… Effusion of… Condition SNOMED        S               
10      72410 From descen… Infection o… Condition SNOMED        S               
# ℹ 12,849 more rows
…
candidate_codes <- getCandidateCodes(
  cdm = cdm,
  keywords = "Musculoskeletal disorder",
  domains = "Condition", 
  standardConcept = "Standard",
  includeDescendants = TRUE,
  searchInSynonyms = TRUE,
  searchNonStandard = FALSE,
  includeAncestor = FALSE
)

candidate_codes

# A tibble: 12,798 × 6
   concept_id found_from   concept_name domain_id vocabulary_id standard_concept
        <int> <chr>        <chr>        <chr>     <chr>         <chr>           
 1      30234 From descen… Neck sprain  Condition SNOMED        S               
 2      72398 From descen… Arthropathy… Condition SNOMED        S               
 3      72399 From descen… Arthropathy… Condition SNOMED        S               
 4      72400 From descen… Arthropathy… Condition SNOMED        S               
 5      72401 From descen… Kashin-Bek … Condition SNOMED        S               
 6      72403 From descen… Hemarthrosi… Condition SNOMED        S               
 7      72405 From descen… Degenerativ… Condition SNOMED        S               
 8      72406 From descen… Old disrupt… Condition SNOMED        S               
 9      72407 From descen… Effusion of… Condition SNOMED        S               
10      72410 From descen… Infection o… Condition SNOMED        S               
# ℹ 12,788 more rows
…
# Compare codelists:
res <- compareCodelists(candidate_codes, candidate_codes_excl)
res

# A tibble: 12,798 × 3
   concept_id concept_name                                              codelist
        <int> <chr>                                                     <chr>   
 1      30234 Neck sprain                                               Both    
 2      72398 Arthropathy in Behcet's syndrome                          Both    
 3      72399 Arthropathy in Behcet's syndrome of multiple sites        Both    
 4      72400 Arthropathy of the pelvic region and thigh associated wi… Both    
 5      72401 Kashin-Bek disease                                        Both    
 6      72403 Hemarthrosis of the ankle and/or foot                     Both    
 7      72405 Degenerative joint disease of shoulder region             Both    
 8      72406 Old disruption of ligament of knee other than collateral… Both    
 9      72407 Effusion of joint of shoulder region                      Both    
10      72410 Infection of bone                                         Both    
# ℹ 12,788 more rows

2.1. Generate a candidate codelist

We can exclude concepts with specific words

res |>
  filter(codelist == "Only in codelist codelist1")

# A tibble: 660 × 3
   concept_id concept_name                                        codelist      
        <int> <chr>                                               <chr>         
 1      73021 Bilateral congenital dislocation of hip             Only in codel…
 2      73872 Congenital deformity of knee joint                  Only in codel…
 3      74150 Congenital subluxation of hip, bilateral            Only in codel…
 4      74468 Congenital anomaly of rib                           Only in codel…
 5      74471 Congenital coxa valga                               Only in codel…
 6      75073 Congenital dislocation of knee with genu recurvatum Only in codel…
 7      75356 Congenital anomaly of sternocleidomastoid muscle    Only in codel…
 8      75804 Congenital myotonic dystrophy                       Only in codel…
 9      75915 Congenital absence of vertebra                      Only in codel…
10      77373 Congenital deformity of hip joint                   Only in codel…
# ℹ 650 more rows
…
c2 <- getCandidateCodes(
  cdm = cdm,
  keywords = "Depression",
  exclude = c("ST depression"),
  includeDescendants = FALSE
)

res <- compareCodelists(c1, c2)
res |>
  filter(codelist == "Only in codelist codelist1")

# A tibble: 27 × 3
   concept_id concept_name                                     codelist         
        <int> <chr>                                            <chr>            
 1    4095285 ST segment depression                            Only in codelist…
 2    4102973 Postviral depression                             Only in codelist…
 3    4108454 Single stimulus depression - finding             Only in codelist…
 4    4129184 Severe postnatal depression                      Only in codelist…
 5    4129842 Mild postnatal depression                        Only in codelist…
 6    4141225 Postoperative supratip depression of nose        Only in codelist…
 7    4161569 Depression of left ventricular systolic function Only in codelist…
 8    4167563 Central nervous system depression                Only in codelist…
 9    4171066 Drug-induced central nervous system depression   Only in codelist…
10    4197222 Stuporous depression                             Only in codelist…
# ℹ 17 more rows
…
CodelistDiagnostics: summariseAchillesCodeUse()

SummariseAchillesCodeUse() uses these tables to calculate the number of people that there are in the database which each one of the concepts present in your codelist.

result <- summariseAchillesCodeUse(depression,
                                   cdm = cdm,
                                   countBy = c("record", "person"))

result

# A tibble: 28 × 13
   result_id cdm_name       group_name    group_level strata_name strata_level
       <int> <chr>          <chr>         <chr>       <chr>       <chr>       
 1         1 Eunomia Synpuf codelist_name depression  domain_id   condition   
 2         1 Eunomia Synpuf codelist_name depression  domain_id   condition   
 3         1 Eunomia Synpuf codelist_name depression  domain_id   condition   
 4         1 Eunomia Synpuf codelist_name depression  domain_id   condition   
 5         1 Eunomia Synpuf codelist_name depression  domain_id   condition   
 6         1 Eunomia Synpuf codelist_name depression  domain_id   condition   
 7         1 Eunomia Synpuf codelist_name depression  domain_id   condition   
 8         1 Eunomia Synpuf codelist_name depression  domain_id   condition   
 9         1 Eunomia Synpuf codelist_name depression  domain_id   condition   
10         1 Eunomia Synpuf codelist_name depression  domain_id   condition   
# ℹ 18 more rows
# ℹ 7 more variables: variable_name <chr>, variable_level <chr>,
#   estimate_name <chr>, estimate_type <chr>, estimate_value <chr>,
#   additional_name <chr>, additional_level <chr>
…
